{
    "photos":{
       "page":1,
       "pages":100,
       "perpage":10,
       "total":1000,
       "photo":[
          {
             "id":"49893635938",
             "owner":"123597211@N03",
             "secret":"0aced90c10",
             "server":"65535",
             "farm":66,
             "title":"Hyazinth-Ara (Lat. Anodorhynchus hyacinthinus)",
             "ispublic":1,
             "isfriend":0,
             "isfamily":0
          },
          {
             "id":"49893635958",
             "owner":"187113622@N05",
             "secret":"01bc873829",
             "server":"65535",
             "farm":66,
             "title":"RR Media  E: rrphotomedia@gmail.com  T: +44.7931.142.387",
             "ispublic":1,
             "isfriend":0,
             "isfamily":0
          },
          {
             "id":"49893636353",
             "owner":"12746769@N05",
             "secret":"1f685c8c5a",
             "server":"65535",
             "farm":66,
             "title":"I Think You Understand",
             "ispublic":1,
             "isfriend":0,
             "isfamily":0
          },
          {
             "id":"49894149576",
             "owner":"188415062@N05",
             "secret":"4d1ed40f9e",
             "server":"65535",
             "farm":66,
             "title":"",
             "ispublic":1,
             "isfriend":0,
             "isfamily":0
          },
          {
             "id":"49894150146",
             "owner":"150503569@N02",
             "secret":"6e2294eda2",
             "server":"65535",
             "farm":66,
             "title":"DSC_4390.jpg",
             "ispublic":1,
             "isfriend":0,
             "isfamily":0
          },
          {
             "id":"49894459687",
             "owner":"188289438@N07",
             "secret":"5827ed5320",
             "server":"65535",
             "farm":66,
             "title":"Samsung, Qualcomm and Huawei Back EVC as an alternative to AV1",
             "ispublic":1,
             "isfriend":0,
             "isfamily":0
          },
          {
             "id":"49894459922",
             "owner":"185725761@N02",
             "secret":"cf86ef101f",
             "server":"65535",
             "farm":66,
             "title":"Master, You Drive The Cart Home, I Want To Watch A Hollywood Action Movie\ud83d\ude2c\ud83d\ude46",
             "ispublic":1,
             "isfriend":0,
             "isfamily":0
          },
          {
             "id":"49894459987",
             "owner":"183812810@N04",
             "secret":"4819090ed5",
             "server":"65535",
             "farm":66,
             "title":"Ch\u00f9a Kh\u1ea3i \u0110oan | Photo by V\u01b0\u01a1ng Nguy\u1ec5n Ng\u1ecdc",
             "ispublic":1,
             "isfriend":0,
             "isfamily":0
          },
          {
             "id":"49894460067",
             "owner":"182915868@N06",
             "secret":"bab18183fa",
             "server":"65535",
             "farm":66,
             "title":"CCW02807-Edit.jpg",
             "ispublic":1,
             "isfriend":0,
             "isfamily":0
          },
          {
             "id":"49894460117",
             "owner":"61021753@N02",
             "secret":"4ded7d2bc1",
             "server":"65535",
             "farm":66,
             "title":"n27_w1150",
             "ispublic":1,
             "isfriend":0,
             "isfamily":0
          }
       ]
    },
    "stat":"ok"
 }